<svg width="98" height="98" viewBox="0 0 98 98" fill="none" xmlns="http://www.w3.org/2000/svg">
<path opacity="0.2" d="M8 24C8 10.7452 18.7452 0 32 0H94C96.2091 0 98 1.79086 98 4V66C98 79.2548 87.2548 90 74 90H12C9.79086 90 8 88.2091 8 86V24Z" fill="#FFB577"/>
<path d="M0 32C0 18.7452 10.7452 8 24 8H86C88.2091 8 90 9.79086 90 12V74C90 87.2548 79.2548 98 66 98H4C1.79086 98 0 96.2091 0 94V32Z" fill="#FFB577"/>
<g clip-path="url(#clip0_1_600)">
<path d="M59.5833 44.2292V57.9167C58.5625 58.6875 57.2083 58.8958 56 58.4792L55.6041 58.3333C56.8333 55.9167 56.375 52.9583 54.4375 50.9792L47.4166 43.9583L53 42L59.5833 44.2292Z" fill="white"/>
<path d="M42.6459 53.5625L50 60.7917V60.8125C49.8125 61.4792 49.4584 62.0833 48.9584 62.5833C48.0625 63.4583 46.875 63.8958 45.7084 63.8333L37.875 56C37.6875 56.1667 37.6042 56.3958 37.6042 56.625C37.6042 56.8958 37.7292 57.1875 38 57.3542L45.4375 64.6458C45.2292 65.1458 44.9375 65.6042 44.5417 66C43.6875 66.8542 42.5625 67.2708 41.4375 67.2708C40.3542 67.2708 39.2709 66.875 38.4375 66.0625L33.8542 61.9167C32.8542 61 31.6875 60.3542 30.3959 59.9583C30.4167 59.8958 30.4167 59.8333 30.4167 59.7708V42.2708L35.7709 40.0625C37.3125 39.4167 39.0417 39.5417 40.4584 40.3125L40.125 40.4792C38.3334 41.375 37.0625 43.0833 36.7084 45.125C36.3959 47.1042 37.0625 49.1458 38.4792 50.5833C39.5209 51.625 40.9167 52.2708 42.3959 52.3958C42.2917 52.5417 42.25 52.6875 42.25 52.8333C42.25 53.125 42.375 53.3958 42.6459 53.5625Z" fill="white"/>
<path d="M53.625 57.6666C53.4584 58 53.25 58.2916 52.9792 58.5625C52.1667 59.375 51.2084 59.8333 50.2083 59.9166L42.6875 52.4167H42.9375C43.9375 52.4167 44.9375 52.1667 45.8125 51.7292L46.4792 51.375L50.0625 49.5625L52.9584 52.4583C52.9584 52.4583 52.9584 52.4583 52.9792 52.4792C54.3542 53.875 54.5834 56.0208 53.625 57.6666Z" fill="white"/>
<path d="M26.7708 61.3333H21.5625C20.7 61.3333 20 60.6333 20 59.7708V42.0625C20 41.2 20.7 40.5 21.5625 40.5H26.7708C27.6333 40.5 28.3333 41.2 28.3333 42.0625V59.7708C28.3333 60.6333 27.6333 61.3333 26.7708 61.3333Z" fill="white"/>
<path d="M68.4375 61.3333H63.2292C62.3667 61.3333 61.6667 60.6333 61.6667 59.7708V42.0625C61.6667 41.2 62.3667 40.5 63.2292 40.5H68.4375C69.3001 40.5 70.0001 41.2 70.0001 42.0625V59.7708C70.0001 60.6333 69.3001 61.3333 68.4375 61.3333Z" fill="white"/>
<path d="M57.375 40.7085C57.3541 40.7085 57.3333 40.6876 57.2916 40.6876L52.5208 38.7293C51.0416 38.1251 49.375 38.1668 47.9375 38.896L42.25 41.7501L41.0625 42.3335C39.8541 42.9376 39 44.1043 38.7708 45.4376C38.5625 46.771 39 48.146 39.9583 49.1043C40.7708 49.9168 41.8541 50.3335 42.9375 50.3335C43.5833 50.3335 44.25 50.1876 44.8541 49.8751L45.5416 49.521L48.5208 48.021L56.8125 43.8543L59.5833 45.0001V42.0626C59.5833 41.9168 59.5833 41.771 59.625 41.646L57.375 40.7085Z" fill="white"/>
</g>
<defs>
<clipPath id="clip0_1_600">
<rect width="50" height="50" fill="white" transform="translate(20 28)"/>
</clipPath>
</defs>
</svg>
