<svg width="332" height="86" viewBox="0 0 332 86" fill="none" xmlns="http://www.w3.org/2000/svg">
<rect width="332" height="68" transform="matrix(0.99863 -0.052336 0 1 0 17.376)" fill="#9DDDB3"/>
</svg>
