<svg width="140" height="36" viewBox="0 0 140 36" fill="none" xmlns="http://www.w3.org/2000/svg">
<rect width="139.905" height="28.6552" transform="matrix(0.99863 -0.052336 0 1 0 7.32202)" fill="#CABDAC" fill-opacity="0.43"/>
</svg>
